{
  "tenant": "cachette",
  "type": "s",
  "date": "2010-10-10",
  "client_id": "owedsn",
  "client_name": "pizzabuff",
  "user_id": "wienqiwnds",
  "description": "excellent log",
  "user_name": "beef@notbeef.org",
  "details": {
    "message": "It exploded"
  },
  "connection": "192.ecce",
  "user_agent": "firefox probably",
  "impersonator_user_id": "ecc",
  "impersonator_user_name": "acc",
  "strategy": "wot",
  "strategy_type": "wee",
  "auth0_client": {
    "type": "js"
  },
  "ip": "192.168.0.10"
}
